{
  "developmentRegion" : "en",
  "targetLocale" : "en",
  "toolInfo" : {
    "toolBuildNumber" : "10P107d",
    "toolID" : "com.apple.dt.xcode",
    "toolName" : "Xcode",
    "toolVersion" : "10.2"
  },
  "version" : "1.0"
}